…
The academictwitteR R package has a very handy function,
“bind_tweets”.  
By specifying the location of the downloaded tweets, the function load
everything in a very tidy tabular format.

``` r
#retrieve tweets and format as tibble
lamda_dat <- bind_tweets(data_path = "lamda_data", output_format = "tidy")
```

The very tidy tibble contains the tweet itself along with many info
(tweet id, timestamp, how many times it was re-tweeted, etc…).

    ## # A tibble: 1,764 × 24
    ##    tweet_id            created_at     retweet_count like_count text  conversation_id possibly_sensit…
    ##    <chr>               <chr>                  <int>      <int> <chr> <chr>           <lgl>           
    ##  1 1554310954187476996 2022-08-02T03…             0          2 "Goo… 15543109541874… FALSE           
    ##  2 1554310831772676097 2022-08-02T03…             0          0 "Goo… 15543108317726… FALSE           
    ##  3 1554310340908765184 2022-08-02T03…             0          1 "The… 15543103398936… FALSE           
    ##  4 1554310295132090368 2022-08-02T03…             0          0 "@se… 15523496858132… FALSE           
    ##  5 1554310020258762752 2022-08-02T03…             0          2 "- t… 15543100170752… FALSE           
    ##  6 1554309920178454528 2022-08-02T03…             0          3 "i c… 15543099201784… FALSE           
    ##  7 1554309704657956864 2022-08-02T03…             2          3 "@Sa… 15542549567937… FALSE           
    ##  8 1554309676845727745 2022-08-02T03…             0          0 "I w… 15543096768457… FALSE           
    ##  9 1554309438453846016 2022-08-02T03…             0          1 "He … 15543083594775… FALSE           
    ## 10 1554309341666230274 2022-08-02T03…             0          3 "@Bl… 15460407806528… FALSE           
    ## # … with 1,754 more rows, and 17 more variables: in_reply_to_user_id <chr>, lang <chr>,
    ## #   source <chr>, user_created_at <chr>, user_protected <lgl>, user_verified <lgl>,
    ## #   quote_count <int>, user_tweet_count <int>, user_list_count <int>, author_id <chr>,
    ## #   user_followers_count <int>, user_following_count <int>, sourcetweet_type <chr>,
    ## #   sourcetweet_id <chr>, sourcetweet_text <chr>, sourcetweet_lang <chr>,
    ## #   sourcetweet_author_id <chr>
…
    ## `summarise()` has grouped output by 'doc_id'. You can override using the `.groups` argument.

``` r
corpus_tfIdf
```

    ## # A tibble: 24,044 × 6
    ##    doc_id  lemma            count    tf   idf tf_idf
    ##    <chr>   <chr>            <int> <dbl> <dbl>  <dbl>
    ##  1 doc11   @azragames           1     1  7.47   7.47
    ##  2 doc1133 octopuse             1     1  7.47   7.47
    ##  3 doc1227 @akikoyoshimura3     1     1  7.47   7.47
    ##  4 doc1665 tasy                 1     1  7.47   7.47
    ##  5 doc219  @myraquestion        1     1  7.47   7.47
    ##  6 doc227  futubot              1     1  7.47   7.47
    ##  7 doc616  insectoid            1     1  7.47   7.47
    ##  8 doc1074 theanything_bot      1     1  6.78   6.78
    ##  9 doc1540 @ericswalwell        1     1  6.78   6.78
    ## 10 doc167  vocaloid             1     1  6.78   6.78
    ## # … with 24,034 more rows
…
Keywords importance is estimated using the posterior probability from
the LDA model.

    ## # A tibble: 300 × 4
    ##    topic  rank keyword posterior
    ##    <int> <int> <chr>       <dbl>
    ##  1     1     1 use        0.208 
    ##  2     1     2 good       0.145 
    ##  3     1     3 life       0.136 
    ##  4     1     4 know       0.118 
    ##  5     1     5 make       0.109 
    ##  6     1     6 s          0.0909
    ##  7     1     7 one        0.0729
    ##  8     1     8 get        0.0279
    ##  9     1     9 ai         0.0189
    ## 10     1    10 want       0.0189
    ## # … with 290 more rows
…
